{
    "url": "https://davehakkens.nl/community/forums/topic/lubricant-suppliers-in-oman/",
    "loadedUrl": null,
    "uniqueKey": "https://davehakkens.nl/community/forums/topic/lubricant-suppliers-in-oman",
    "method": "GET",
    "payload": null,
    "noRetry": false,
    "retryCount": 0,
    "errorMessages": null,
    "headers": {},
    "userData": {},
    "handledAt": null,
    "id": "ebRTcQj5wJPwRXE"
}