{
    "id": "TjZX6SbtCD6UslM",
    "url": "https://davehakkens.nl/community/forums/topic/help/",
    "loadedUrl": "https://davehakkens.nl/community/forums/topic/help/",
    "uniqueKey": "https://davehakkens.nl/community/forums/topic/help",
    "method": "GET",
    "payload": null,
    "noRetry": false,
    "retryCount": 0,
    "errorMessages": null,
    "headers": {},
    "userData": {},
    "handledAt": "2020-12-28T16:47:37.548Z"
}